{
  "Version": "2008-10-17",
    "Statement": [
      {
        "Sid": "local_account",
        "Effect": "Allow",
        "Principal": { "AWS": [ "106251776774" ] },
        "Action": "ecr:*"
      },
      {
        "Sid": "repo_permissions",
        "Effect": "Allow",
        "Principal": {
          "AWS": [ "581408167542", "972969715477", "496570713770", "130335858670" ]
        },
        "Action": [
          "ecr:GetDownloadUrlForLayer",
          "ecr:BatchCheckLayerAvailability",
          "ecr:BatchGetImage"
        ]
      }
    ]
  }